{
  "ignore": ["src/**/*.spec.ts"],
  "watch": ["src/**/*.ts"],
  "verbose": true,
  "execMap": {
    "ts": "node --inspect=0.0.0.0:9229 --nolazy -r ts-node/register"
  },
  "env": {
    "NODE_ENV": "development"
  }
}
